%YAML 1.1
%TAG !u! tag:unity3d.com,2011:
--- !u!21 &2100000
Material:
  serializedVersion: 6
  m_ObjectHideFlags: 0
  m_CorrespondingSourceObject: {fileID: 0}
  m_PrefabInstance: {fileID: 0}
  m_PrefabAsset: {fileID: 0}
  m_Name: LiquidShader_Orange
  m_Shader: {fileID: -6465566751694194690, guid: 07b39e1c5f8362b49b6ca06ae503337a, type: 3}
  m_ShaderKeywords: 
  m_LightmapFlags: 4
  m_EnableInstancingVariants: 0
  m_DoubleSidedGI: 0
  m_CustomRenderQueue: -1
  stringTagMap: {}
  disabledShaderPasses: []
  m_SavedProperties:
    serializedVersion: 3
    m_TexEnvs:
    - unity_Lightmaps:
        m_Texture: {fileID: 0}
        m_Scale: {x: 1, y: 1}
        m_Offset: {x: 0, y: 0}
    - unity_LightmapsInd:
        m_Texture: {fileID: 0}
        m_Scale: {x: 1, y: 1}
        m_Offset: {x: 0, y: 0}
    - unity_ShadowMasks:
        m_Texture: {fileID: 0}
        m_Scale: {x: 1, y: 1}
        m_Offset: {x: 0, y: 0}
    m_Floats:
    - Vector1_2e62024e216e4cf0bfa6d0222995b2e1: 0.8
    m_Colors:
    - Color_3e78d6d741954fdeba4639761bc6965f: {r: 1, g: 0.05951124, b: 0, a: 1}
    - Color_4fc2ad9d75aa44338eeb99a3ef7184ca: {r: 1, g: 0.21223079, b: 0.08021983, a: 1}
  m_BuildTextureStacks: []
