%YAML 1.1
%TAG !u! tag:unity3d.com,2011:
--- !u!21 &2100000
Material:
  serializedVersion: 6
  m_ObjectHideFlags: 0
  m_CorrespondingSourceObject: {fileID: 0}
  m_PrefabInstance: {fileID: 0}
  m_PrefabAsset: {fileID: 0}
  m_Name: RoomGeneric
  m_Shader: {fileID: -6465566751694194690, guid: 468b20d748f4b8544bb6e9051ed3a64e, type: 3}
  m_ShaderKeywords: 
  m_LightmapFlags: 4
  m_EnableInstancingVariants: 0
  m_DoubleSidedGI: 0
  m_CustomRenderQueue: -1
  stringTagMap: {}
  disabledShaderPasses: []
  m_SavedProperties:
    serializedVersion: 3
    m_TexEnvs:
    - Texture2D_1:
        m_Texture: {fileID: 0}
        m_Scale: {x: 1, y: 1}
        m_Offset: {x: 0, y: 0}
    - Texture2D_17af5721861340eaa6d7b9824878bbf8:
        m_Texture: {fileID: 0}
        m_Scale: {x: 1, y: 1}
        m_Offset: {x: 0, y: 0}
    - Texture2D_2:
        m_Texture: {fileID: 0}
        m_Scale: {x: 1, y: 1}
        m_Offset: {x: 0, y: 0}
    - Texture2D_3:
        m_Texture: {fileID: 0}
        m_Scale: {x: 1, y: 1}
        m_Offset: {x: 0, y: 0}
    - Texture2D_4:
        m_Texture: {fileID: 2800000, guid: db40c65cf68cb4149aba8c3d361e3f12, type: 3}
        m_Scale: {x: 1, y: 1}
        m_Offset: {x: 0, y: 0}
    - Texture2D_5:
        m_Texture: {fileID: 0}
        m_Scale: {x: 1, y: 1}
        m_Offset: {x: 0, y: 0}
    - _ChooseProjectionPlaneSub_4233d351dac547a09320f56a0e477f1b_Texture2D6f81cef0fcb446c4a5d81e53df3d10dc_4144570483:
        m_Texture: {fileID: 0}
        m_Scale: {x: 1, y: 1}
        m_Offset: {x: 0, y: 0}
    - _ChooseProjectionPlaneSub_7a105fae37274b42a0815db6001fad62_Texture2D6f81cef0fcb446c4a5d81e53df3d10dc_4144570483:
        m_Texture: {fileID: 0}
        m_Scale: {x: 1, y: 1}
        m_Offset: {x: 0, y: 0}
    - _ChooseProjectionPlaneSub_d4f4dabef9ab44fc856bcf4863cec7c3_Texture2D6f81cef0fcb446c4a5d81e53df3d10dc_4144570483:
        m_Texture: {fileID: 0}
        m_Scale: {x: 1, y: 1}
        m_Offset: {x: 0, y: 0}
    - _SampleTexture2D_2c8a5f64766044dd932c14e611e48462_Texture_1:
        m_Texture: {fileID: 0}
        m_Scale: {x: 1, y: 1}
        m_Offset: {x: 0, y: 0}
    - _SampleTexture2D_c3b1bac53242447b93bcfc9c9f89ab5a_Texture_1:
        m_Texture: {fileID: 0}
        m_Scale: {x: 1, y: 1}
        m_Offset: {x: 0, y: 0}
    - _SampleTexture2D_cb1da1930eee46dc8ddad345270a8cae_Texture_1:
        m_Texture: {fileID: 0}
        m_Scale: {x: 1, y: 1}
        m_Offset: {x: 0, y: 0}
    - _SampleTexture2D_f5635a4bfb344fe8b5984dab5121338d_Texture_1:
        m_Texture: {fileID: 0}
        m_Scale: {x: 1, y: 1}
        m_Offset: {x: 0, y: 0}
    - unity_Lightmaps:
        m_Texture: {fileID: 0}
        m_Scale: {x: 1, y: 1}
        m_Offset: {x: 0, y: 0}
    - unity_LightmapsInd:
        m_Texture: {fileID: 0}
        m_Scale: {x: 1, y: 1}
        m_Offset: {x: 0, y: 0}
    - unity_ShadowMasks:
        m_Texture: {fileID: 0}
        m_Scale: {x: 1, y: 1}
        m_Offset: {x: 0, y: 0}
    m_Floats:
    - BOOLEAN_AF1AB50803B942D5B027D8847767A19B: 0
    - BOOLEAN_B395602BF4CE434BA52FC6856A309EB0: 0
    - Boolean_1: 0
    - Boolean_11c087cf07a6448b980b934225ae1ada: 0
    - Boolean_2: 0
    - Boolean_6fa880deaaae414d9d5204ea05bfdd8e: 0
    - Boolean_71ab0fd87f754c0db95dd427003622a4: 0
    - Boolean_cc0ec5809da44146abb9d847347931bb: 0
    - ENUM_813DF0F5A7F74B42BDE45DFFAB18FB8E: 0
    - Vector1_00eeddd5638a45d9a22a3ebf61db4947: 0
    - Vector1_1: 5.69
    - Vector1_2: 4.08
    - Vector1_2efc3f420a52473898215937147ff792: 0
    - Vector1_4b243c9d0d7f456eb0a620b30f853e12: -0.92
    - Vector1_6e30759462d548d3b388a49b2d1483cd: 0
    - Vector1_e2a1a19327e841678e254bfbe7f823c7: 4.53
    - Vector1_e2a1a19327e841678e254bfbe7f823c7_1: 9.15
    - Vector1_e2a1a19327e841678e254bfbe7f823c7_2: 0.74
    - Vector1_f0884039d5fb41d8908a377a9418902f: 1
    - Vector1_f0c0cdaa3a8d46df8fbe6d16fd0fef4e: 1
    m_Colors:
    - Color_427456dddb834fd28e38d06c4ec9ff5e: {r: 0.4392157, g: 0.7733335, b: 0.98039216, a: 1}
    - Color_7657c5ce5f1546a9b9c0d03bdb9884e0: {r: 0.19607843, g: 0.29215688, b: 0.46470588, a: 1}
    - Color_946ddd86a90b46bfb41354610fa77019: {r: 0.5994706, g: 0.77048856, b: 0.92941177, a: 1}
  m_BuildTextureStacks: []
