%YAML 1.1
%TAG !u! tag:unity3d.com,2011:
--- !u!114 &11400000
MonoBehaviour:
  m_ObjectHideFlags: 0
  m_CorrespondingSourceObject: {fileID: 0}
  m_PrefabInstance: {fileID: 0}
  m_PrefabAsset: {fileID: 0}
  m_GameObject: {fileID: 0}
  m_Enabled: 1
  m_EditorHideFlags: 0
  m_Script: {fileID: 11500000, guid: 7db7191629954081b258f199c20961dd, type: 3}
  m_Name: WorldConfig
  m_EditorClassIdentifier: 
  GravityForce: 40
  PlayerHorizontalSpeed: 10
  PlayerVerticalSpeed: 20
  EnemyHorizontalSpeed: 5
  LazerChargeHorizontalSpeed: 10
  _UiPrefab: {fileID: 8044866399705332411, guid: 1f87e82c713574c4fb88ee42894269aa, type: 3}
  Themes:
  - {fileID: 8300000, guid: 35d1974eb63cb6f469b5ea7ff1b609d7, type: 3}
  DeathTheme: {fileID: 8300000, guid: b929942c82c2e4846b0beeb2da2c676d, type: 3}
  SFX:
  - Type: 0
    AudioClip: {fileID: 8300000, guid: 8190529a361cc644991bd717c3cf9946, type: 3}
  - Type: 1
    AudioClip: {fileID: 8300000, guid: 93dd9e595ad818446ab0ffcd3207442b, type: 3}
  - Type: 2
    AudioClip: {fileID: 8300000, guid: 3d35722bbd5a57d44a10549d67a171f8, type: 3}
  - Type: 3
    AudioClip: {fileID: 8300000, guid: e2ac87455085e5f4c931fe452951ef01, type: 3}
  - Type: 4
    AudioClip: {fileID: 8300000, guid: 6c326424ea32d394f842011bb7540832, type: 3}
  - Type: 5
    AudioClip: {fileID: 8300000, guid: 6e4813f6e6e932b4b8c9cf46dcff67d8, type: 3}
  - Type: 6
    AudioClip: {fileID: 8300000, guid: ad440e9d17f096e4c9f9e2d4f4fc80f2, type: 3}
  - Type: 7
    AudioClip: {fileID: 8300000, guid: f6a3ca3d442004741871337f01518888, type: 3}
