%YAML 1.1
%TAG !u! tag:unity3d.com,2011:
--- !u!1045 &1
EditorBuildSettings:
  m_ObjectHideFlags: 0
  serializedVersion: 2
  m_Scenes:
  - enabled: 1
    path: Assets/Scenes/Menu.unity
    guid: 9fc0d4010bbf28b4594072e72b8655ab
  - enabled: 1
    path: Assets/Scenes/1_Control 1.unity
    guid: fa1e9b95472ffcf4cbb9485d389871c5
  - enabled: 1
    path: Assets/Scenes/2_Control and Jump.unity
    guid: 68b9fb4f54401514690f381bc546b411
  - enabled: 1
    path: Assets/Scenes/3_First die.unity
    guid: 1d5af858123e7b544a1487e349412484
  - enabled: 1
    path: Assets/Scenes/4_Lazer.unity
    guid: cceabf4e7f6a22c45930816c785759b6
  - enabled: 1
    path: Assets/Scenes/5_Pit and Lazer.unity
    guid: ce1de34cf9a81b24ab3f6735505754b1
  - enabled: 1
    path: Assets/Scenes/6_Robot and door.unity
    guid: 1cf5ccda1b38812479d46220362c5b9d
  - enabled: 1
    path: Assets/Scenes/7_Robot and door 2.unity
    guid: ebe82e5a4ec18174cbc5492adde9d9f6
  - enabled: 1
    path: Assets/Scenes/8_Cat Canon.unity
    guid: a741528260e465546981a2d518f64451
  - enabled: 1
    path: Assets/Scenes/9_Cat Canon 2.unity
    guid: 053177643a0f3a44f9e22aaff24adad6
  - enabled: 1
    path: Assets/Scenes/10_Bird.unity
    guid: b879826a83b269b498eb861a1b89a0db
  - enabled: 1
    path: Assets/Scenes/Final.unity
    guid: f8b65f2760107534ca4a09bb3f75978a
  m_configObjects: {}
